kadai7/peran.vcd
$date
	Fri Jul 03 00:06:53 2020
$end
$version
	Icarus Verilog
$end
$timescale
	1s
$end
$scope module test $end
$scope module top $end
$var wire 1 ! clk $end
$var wire 1 " rst $end
$var wire 1 # we $end
$var wire 16 $ wd [15:0] $end
$var wire 2 % wad [1:0] $end
$var wire 6 & pca [5:0] $end
$var wire 3 ' op [2:0] $end
$var wire 10 ( o [9:0] $end
$var wire 1 ) h $end
$var wire 2 * brad [1:0] $end
$var wire 16 + b [15:0] $end
$var wire 2 , arad [1:0] $end
$var wire 16 - a [15:0] $end
$scope module alu $end
$var wire 3 . op [2:0] $end
$var wire 16 / b [15:0] $end
$var wire 16 0 a [15:0] $end
$var reg 16 1 r [15:0] $end
$upscope $end
$scope module imem $end
$var wire 6 2 pc [5:0] $end
$var reg 10 3 o [9:0] $end
$upscope $end
$scope module pc $end
$var wire 1 ! clk $end
$var wire 1 ) halt $end
$var wire 1 " rst $end
$var reg 6 4 pc [5:0] $end
$upscope $end
$scope module rega $end
$var wire 16 5 a [15:0] $end
$var wire 2 6 arad [1:0] $end
$var wire 16 7 b [15:0] $end
$var wire 2 8 brad [1:0] $end
$var wire 1 ! clk $end
$var wire 1 " rst $end
$var wire 2 9 wad [1:0] $end
$var wire 16 : wd [15:0] $end
$var wire 1 # we $end
$upscope $end
$upscope $end
$upscope $end
$enddefinitions $end
#0
$dumpvars
b1 :
b0 9
b0 8
b0 7
b0 6
b0 5
b0 4
b10000 3
b0 2
b1 1
b0 0
b0 /
b1 .
b0 -
b0 ,
b0 +
b0 *
0)
b10000 (
b1 '
b0 &
b0 %
b1 $
1#
1"
0!
$end
#5
1!
#10
0!
#15
1!
#20
0!
0"
#25
b1 %
b1 9
b10010000 (
b10010000 3
b1 &
b1 2
b1 4
b1 -
b1 0
b1 5
b1 +
b1 /
b1 7
1!
#30
0!
#35
b10 $
b10 1
b10 :
b10 %
b10 9
b10 '
b10 .
b1 ,
b1 6
b100100001 (
b100100001 3
b10 &
b10 2
b10 4
1!
#40
0!
#45
b11 $
b11 1
b11 :
b0 %
b0 9
b10 +
b10 /
b10 7
b10 *
b10 8
b101001 (
b101001 3
b11 &
b11 2
b11 4
1!
#50
0!
#55
b0 $
b0 1
b0 :
b1 %
b1 9
b0 '
b0 .
b11 +
b11 /
b11 7
b0 *
b0 8
b10000001 (
b10000001 3
b100 &
b100 2
b100 4
1!
#60
0!
#65
b11 $
b11 1
b11 :
b11 %
b11 9
b10 '
b10 .
b110100001 (
b110100001 3
b101 &
b101 2
b101 4
b0 -
b0 0
b0 5
1!
#70
0!
#75
b0 $
b0 1
b0 :
b0 %
b0 9
b100 '
b100 .
b1000001 (
b1000001 3
b110 &
b110 2
b110 4
1!
#80
0!
#85
b10 $
b10 1
b10 :
b1 %
b1 9
b10 -
b10 0
b10 5
b10 ,
b10 6
b11000010 (
b11000010 3
b111 &
b111 2
b111 4
b0 +
b0 /
b0 7
1!
#90
0!
#95
b11 $
b11 1
b11 :
b10 %
b10 9
b11 -
b11 0
b11 5
b11 ,
b11 6
b101000011 (
b101000011 3
b1000 &
b1000 2
b1000 4
1!
#100
0!
#105
b10 $
b10 1
b10 :
b11 %
b11 9
b10 '
b10 .
b10 -
b10 0
b10 5
b1 ,
b1 6
b110100001 (
b110100001 3
b1001 &
b1001 2
b1001 4
1!
#110
0!
#115
b0 %
b0 9
b100 '
b100 .
b1000001 (
b1000001 3
b1010 &
b1010 2
b1010 4
1!
#120
0!
#125
b11 $
b11 1
b11 :
b1 %
b1 9
b11 -
b11 0
b11 5
b10 ,
b10 6
b11000010 (
b11000010 3
b1011 &
b1011 2
b1011 4
b10 +
b10 /
b10 7
1!
#130
0!
#135
b10 $
b10 1
b10 :
b10 %
b10 9
b10 -
b10 0
b10 5
b11 ,
b11 6
b101000011 (
b101000011 3
b1100 &
b1100 2
b1100 4
1!
#140
0!
#145
b101 $
b101 1
b101 :
b11 %
b11 9
b10 '
b10 .
b11 -
b11 0
b11 5
b1 ,
b1 6
b110100001 (
b110100001 3
b1101 &
b1101 2
b1101 4
1!
#150
0!
#155
b11 $
b11 1
b11 :
b0 %
b0 9
b100 '
b100 .
b1000001 (
b1000001 3
b1110 &
b1110 2
b1110 4
1!
#160
0!
#165
b10 $
b10 1
b10 :
b1 %
b1 9
b10 -
b10 0
b10 5
b10 ,
b10 6
b11000010 (
b11000010 3
b1111 &
b1111 2
b1111 4
b11 +
b11 /
b11 7
1!
#170
0!
#175
b101 $
b101 1
b101 :
b10 %
b10 9
b101 -
b101 0
b101 5
b11 ,
b11 6
b101000011 (
b101000011 3
b10000 &
b10000 2
b10000 4
1!
#180
0!
#185
b11 %
b11 9
b10 '
b10 .
b10 -
b10 0
b10 5
b1 ,
b1 6
b110100001 (
b110100001 3
b10001 &
b10001 2
b10001 4
1!
#190
0!
#195
b10 $
b10 1
b10 :
b0 %
b0 9
b100 '
b100 .
b1000001 (
b1000001 3
b10010 &
b10010 2
b10010 4
1!
#200
0!
#205
b101 $
b101 1
b101 :
b1 %
b1 9
b101 -
b101 0
b101 5
b10 ,
b10 6
b11000010 (
b11000010 3
b10011 &
b10011 2
b10011 4
b10 +
b10 /
b10 7
1!
#210
0!
#215
b10 %
b10 9
b11 ,
b11 6
b101000011 (
b101000011 3
b10100 &
b10100 2
b10100 4
1!
#220
0!
#225
b111 $
b111 1
b111 :
b11 %
b11 9
b10 '
b10 .
b1 ,
b1 6
b110100001 (
b110100001 3
b10101 &
b10101 2
b10101 4
1!
#230
0!
#235
b101 $
b101 1
b101 :
b0 %
b0 9
b100 '
b100 .
b1000001 (
b1000001 3
b10110 &
b10110 2
b10110 4
1!
#240
0!
#245
b1 %
b1 9
b10 ,
b10 6
b11000010 (
b11000010 3
b10111 &
b10111 2
b10111 4
b101 +
b101 /
b101 7
1!
#250
0!
#255
b111 $
b111 1
b111 :
b10 %
b10 9
b111 -
b111 0
b111 5
b11 ,
b11 6
b101000011 (
b101000011 3
b11000 &
b11000 2
b11000 4
1!
#260
0!
#265
b1010 $
b1010 1
b1010 :
b11 %
b11 9
b10 '
b10 .
b101 -
b101 0
b101 5
b1 ,
b1 6
b110100001 (
b110100001 3
b11001 &
b11001 2
b11001 4
1!
#270
0!
#275
b101 $
b101 1
b101 :
b0 %
b0 9
b100 '
b100 .
b1000001 (
b1000001 3
b11010 &
b11010 2
b11010 4
1!
#280
0!
#285
b111 $
b111 1
b111 :
b1 %
b1 9
b111 -
b111 0
b111 5
b10 ,
b10 6
b11000010 (
b11000010 3
b11011 &
b11011 2
b11011 4
1!
#290
0!
#295
b1010 $
b1010 1
b1010 :
b10 %
b10 9
b1010 -
b1010 0
b1010 5
b11 ,
b11 6
b101000011 (
b101000011 3
b11100 &
b11100 2
b11100 4
1!
#300
0!
#305
b1100 $
b1100 1
b1100 :
b11 %
b11 9
b10 '
b10 .
b111 -
b111 0
b111 5
b1 ,
b1 6
b110100001 (
b110100001 3
b11101 &
b11101 2
b11101 4
1!
#310
0!
#315
b111 $
b111 1
b111 :
b0 %
b0 9
b100 '
b100 .
b1000001 (
b1000001 3
b11110 &
b11110 2
b11110 4
1!
#320
0!
#325
b1010 $
b1010 1
b1010 :
b1 %
b1 9
b1010 -
b1010 0
b1010 5
b10 ,
b10 6
b11000010 (
b11000010 3
b11111 &
b11111 2
b11111 4
b111 +
b111 /
b111 7
1!
#330
0!
#335
b1100 $
b1100 1
b1100 :
b10 %
b10 9
b1100 -
b1100 0
b1100 5
b11 ,
b11 6
b101000011 (
b101000011 3
b100000 &
b100000 2
b100000 4
1!
#340
0!
#345
0#
b0 $
b0 1
b0 :
1)
b0 %
b0 9
b0 '
b0 .
b111 -
b111 0
b111 5
b0 ,
b0 6
b1000000000 (
b1000000000 3
b100001 &
b100001 2
b100001 4
1!
