last/cb.vcd
$date
	Mon Jul 20 17:30:08 2020
$end
$version
	Icarus Verilog
$end
$timescale
	1s
$end
$scope module cbtest $end
$var wire 10 ! o3 [9:0] $end
$var wire 10 " o2 [9:0] $end
$var wire 10 # o1 [9:0] $end
$var wire 10 $ o0 [9:0] $end
$var reg 4 % d0 [3:0] $end
$var reg 4 & d1 [3:0] $end
$var reg 4 ' d2 [3:0] $end
$var reg 4 ( d3 [3:0] $end
$var reg 10 ) i0 [9:0] $end
$var reg 10 * i1 [9:0] $end
$var reg 10 + i2 [9:0] $end
$var reg 10 , i3 [9:0] $end
$scope module cb $end
$var wire 4 - d0 [3:0] $end
$var wire 4 . d1 [3:0] $end
$var wire 4 / d2 [3:0] $end
$var wire 4 0 d3 [3:0] $end
$var wire 10 1 i0 [9:0] $end
$var wire 10 2 i1 [9:0] $end
$var wire 10 3 i2 [9:0] $end
$var wire 10 4 i3 [9:0] $end
$var wire 10 5 o3 [9:0] $end
$var wire 10 6 o2 [9:0] $end
$var wire 10 7 o1 [9:0] $end
$var wire 10 8 o0 [9:0] $end
$scope module cbsel0 $end
$var wire 4 9 d [3:0] $end
$var wire 10 : i0 [9:0] $end
$var wire 10 ; i1 [9:0] $end
$var wire 10 < i2 [9:0] $end
$var wire 10 = i3 [9:0] $end
$var reg 10 > o [9:0] $end
$upscope $end
$scope module cbsel1 $end
$var wire 4 ? d [3:0] $end
$var wire 10 @ i0 [9:0] $end
$var wire 10 A i1 [9:0] $end
$var wire 10 B i2 [9:0] $end
$var wire 10 C i3 [9:0] $end
$var reg 10 D o [9:0] $end
$upscope $end
$scope module cbsel2 $end
$var wire 4 E d [3:0] $end
$var wire 10 F i0 [9:0] $end
$var wire 10 G i1 [9:0] $end
$var wire 10 H i2 [9:0] $end
$var wire 10 I i3 [9:0] $end
$var reg 10 J o [9:0] $end
$upscope $end
$scope module cbsel3 $end
$var wire 4 K d [3:0] $end
$var wire 10 L i0 [9:0] $end
$var wire 10 M i1 [9:0] $end
$var wire 10 N i2 [9:0] $end
$var wire 10 O i3 [9:0] $end
$var reg 10 P o [9:0] $end
$upscope $end
$upscope $end
$upscope $end
$enddefinitions $end
#0
$dumpvars
b0 P
b0 O
b0 N
b0 M
b0 L
b0 K
b0 J
b0 I
b0 H
b0 G
b0 F
b0 E
b0 D
b0 C
b0 B
b0 A
b0 @
b0 ?
b0 >
b0 =
b0 <
b0 ;
b0 :
b0 9
b0 8
b0 7
b0 6
b0 5
b0 4
b0 3
b0 2
b0 1
b0 0
b0 /
b0 .
b0 -
b0 ,
b0 +
b0 *
b0 )
b0 (
b0 '
b0 &
b0 %
b0 $
b0 #
b0 "
b0 !
$end
#20
b1000000000 $
b1000000000 8
b1000000000 >
b1 %
b1 -
b1 9
b1000000000 )
b1000000000 1
b1000000000 :
b1000000000 @
b1000000000 F
b1000000000 L
#30
b100000000 $
b100000000 8
b100000000 >
b100000000 )
b100000000 1
b100000000 :
b100000000 @
b100000000 F
b100000000 L
#40
b100000001 $
b100000001 8
b100000001 >
b100000001 )
b100000001 1
b100000001 :
b100000001 @
b100000001 F
b100000001 L
#50
b0 $
b0 8
b0 >
b0 %
b0 -
b0 9
b1100000010 )
b1100000010 1
b1100000010 :
b1100000010 @
b1100000010 F
b1100000010 L
#60
b0 )
b0 1
b0 :
b0 @
b0 F
b0 L
#70
b1010010001 #
b1010010001 7
b1010010001 D
b1 &
b1 .
b1 ?
b1010010001 )
b1010010001 1
b1010010001 :
b1010010001 @
b1010010001 F
b1010010001 L
#80
b110010000 #
b110010000 7
b110010000 D
b110010000 )
b110010000 1
b110010000 :
b110010000 @
b110010000 F
b110010000 L
#90
b110010001 #
b110010001 7
b110010001 D
b110010001 )
b110010001 1
b110010001 :
b110010001 @
b110010001 F
b110010001 L
#100
b1110010010 #
b1110010010 7
b1110010010 D
b1110010010 )
b1110010010 1
b1110010010 :
b1110010010 @
b1110010010 F
b1110010010 L
#110
b0 #
b0 7
b0 D
b0 )
b0 1
b0 :
b0 @
b0 F
b0 L
#120
b1000000000 #
b1000000000 7
b1000000000 D
b1000000000 )
b1000000000 1
b1000000000 :
b1000000000 @
b1000000000 F
b1000000000 L
#130
b1100001111 #
b1100001111 7
b1100001111 D
b1100001111 )
b1100001111 1
b1100001111 :
b1100001111 @
b1100001111 F
b1100001111 L
#140
b1000000001 #
b1000000001 7
b1000000001 D
b1000000001 )
b1000000001 1
b1000000001 :
b1000000001 @
b1000000001 F
b1000000001 L
#150
b1100001111 #
b1100001111 7
b1100001111 D
b1100001111 )
b1100001111 1
b1100001111 :
b1100001111 @
b1100001111 F
b1100001111 L
#160
b1000000010 #
b1000000010 7
b1000000010 D
b1000000010 "
b1000000010 6
b1000000010 J
b1 '
b1 /
b1 E
b1000000010 )
b1000000010 1
b1000000010 :
b1000000010 @
b1000000010 F
b1000000010 L
#170
b1100001111 #
b1100001111 7
b1100001111 D
b0 "
b0 6
b0 J
b0 '
b0 /
b0 E
b1100001111 )
b1100001111 1
b1100001111 :
b1100001111 @
b1100001111 F
b1100001111 L
#180
b1000000011 #
b1000000011 7
b1000000011 D
b1000000011 !
b1000000011 5
b1000000011 P
b1 (
b1 0
b1 K
b1000000011 )
b1000000011 1
b1000000011 :
b1000000011 @
b1000000011 F
b1000000011 L
#190
b1100001111 #
b1100001111 7
b1100001111 D
b1100001111 !
b1100001111 5
b1100001111 P
b1100001111 )
b1100001111 1
b1100001111 :
b1100001111 @
b1100001111 F
b1100001111 L
#200
b0 #
b0 7
b0 D
b0 !
b0 5
b0 P
b0 )
b0 1
b0 :
b0 @
b0 F
b0 L
#210
b1000010000 *
b1000010000 2
b1000010000 ;
b1000010000 A
b1000010000 G
b1000010000 M
#220
b1100011111 *
b1100011111 2
b1100011111 ;
b1100011111 A
b1100011111 G
b1100011111 M
#230
b1000010001 *
b1000010001 2
b1000010001 ;
b1000010001 A
b1000010001 G
b1000010001 M
#240
b1100011111 *
b1100011111 2
b1100011111 ;
b1100011111 A
b1100011111 G
b1100011111 M
#250
b1000010010 *
b1000010010 2
b1000010010 ;
b1000010010 A
b1000010010 G
b1000010010 M
#260
b1100011111 *
b1100011111 2
b1100011111 ;
b1100011111 A
b1100011111 G
b1100011111 M
#270
b1000010011 *
b1000010011 2
b1000010011 ;
b1000010011 A
b1000010011 G
b1000010011 M
#280
b1100011111 *
b1100011111 2
b1100011111 ;
b1100011111 A
b1100011111 G
b1100011111 M
#290
b0 *
b0 2
b0 ;
b0 A
b0 G
b0 M
#300
b1000100000 +
b1000100000 3
b1000100000 <
b1000100000 B
b1000100000 H
b1000100000 N
#310
b1100101111 +
b1100101111 3
b1100101111 <
b1100101111 B
b1100101111 H
b1100101111 N
#320
b1000100001 +
b1000100001 3
b1000100001 <
b1000100001 B
b1000100001 H
b1000100001 N
#330
b1100101111 +
b1100101111 3
b1100101111 <
b1100101111 B
b1100101111 H
b1100101111 N
#340
b1000100010 +
b1000100010 3
b1000100010 <
b1000100010 B
b1000100010 H
b1000100010 N
#350
b1100101111 +
b1100101111 3
b1100101111 <
b1100101111 B
b1100101111 H
b1100101111 N
#360
b1000100011 +
b1000100011 3
b1000100011 <
b1000100011 B
b1000100011 H
b1000100011 N
#370
b1100101111 +
b1100101111 3
b1100101111 <
b1100101111 B
b1100101111 H
b1100101111 N
#380
b0 +
b0 3
b0 <
b0 B
b0 H
b0 N
#390
b1000110000 ,
b1000110000 4
b1000110000 =
b1000110000 C
b1000110000 I
b1000110000 O
#400
b1100111111 ,
b1100111111 4
b1100111111 =
b1100111111 C
b1100111111 I
b1100111111 O
#410
b1000110001 ,
b1000110001 4
b1000110001 =
b1000110001 C
b1000110001 I
b1000110001 O
#420
b1100111111 ,
b1100111111 4
b1100111111 =
b1100111111 C
b1100111111 I
b1100111111 O
#430
b1000110010 ,
b1000110010 4
b1000110010 =
b1000110010 C
b1000110010 I
b1000110010 O
#440
b1100111111 ,
b1100111111 4
b1100111111 =
b1100111111 C
b1100111111 I
b1100111111 O
#450
b1000110011 ,
b1000110011 4
b1000110011 =
b1000110011 C
b1000110011 I
b1000110011 O
#460
b1100111111 ,
b1100111111 4
b1100111111 =
b1100111111 C
b1100111111 I
b1100111111 O
#470
b0 ,
b0 4
b0 =
b0 C
b0 I
b0 O
#770
b1000000001 #
b1000000001 7
b1000000001 D
b1000000001 !
b1000000001 5
b1000000001 P
b1000110001 ,
b1000110001 4
b1000110001 =
b1000110001 C
b1000110001 I
b1000110001 O
b1000100001 +
b1000100001 3
b1000100001 <
b1000100001 B
b1000100001 H
b1000100001 N
b1000010001 *
b1000010001 2
b1000010001 ;
b1000010001 A
b1000010001 G
b1000010001 M
b1000000001 )
b1000000001 1
b1000000001 :
b1000000001 @
b1000000001 F
b1000000001 L
#780
b100000000 #
b100000000 7
b100000000 D
b100000000 !
b100000000 5
b100000000 P
b100110000 ,
b100110000 4
b100110000 =
b100110000 C
b100110000 I
b100110000 O
b100100000 +
b100100000 3
b100100000 <
b100100000 B
b100100000 H
b100100000 N
b100010000 *
b100010000 2
b100010000 ;
b100010000 A
b100010000 G
b100010000 M
b100000000 )
b100000000 1
b100000000 :
b100000000 @
b100000000 F
b100000000 L
#790
b100000001 #
b100000001 7
b100000001 D
b100000001 !
b100000001 5
b100000001 P
b100110001 ,
b100110001 4
b100110001 =
b100110001 C
b100110001 I
b100110001 O
b100100001 +
b100100001 3
b100100001 <
b100100001 B
b100100001 H
b100100001 N
b100010001 *
b100010001 2
b100010001 ;
b100010001 A
b100010001 G
b100010001 M
b100000001 )
b100000001 1
b100000001 :
b100000001 @
b100000001 F
b100000001 L
#800
b1100001111 #
b1100001111 7
b1100001111 D
b1100001111 !
b1100001111 5
b1100001111 P
b1100111111 ,
b1100111111 4
b1100111111 =
b1100111111 C
b1100111111 I
b1100111111 O
b1100101111 +
b1100101111 3
b1100101111 <
b1100101111 B
b1100101111 H
b1100101111 N
b1100011111 *
b1100011111 2
b1100011111 ;
b1100011111 A
b1100011111 G
b1100011111 M
b1100001111 )
b1100001111 1
b1100001111 :
b1100001111 @
b1100001111 F
b1100001111 L
#810
b0 #
b0 7
b0 D
b0 !
b0 5
b0 P
b0 ,
b0 4
b0 =
b0 C
b0 I
b0 O
b0 +
b0 3
b0 <
b0 B
b0 H
b0 N
b0 *
b0 2
b0 ;
b0 A
b0 G
b0 M
b0 )
b0 1
b0 :
b0 @
b0 F
b0 L
#1110
b1000000000 #
b1000000000 7
b1000000000 D
b1000000000 !
b1000000000 5
b1000000000 P
b1000110000 ,
b1000110000 4
b1000110000 =
b1000110000 C
b1000110000 I
b1000110000 O
b1000100000 +
b1000100000 3
b1000100000 <
b1000100000 B
b1000100000 H
b1000100000 N
b1000010000 *
b1000010000 2
b1000010000 ;
b1000010000 A
b1000010000 G
b1000010000 M
b1000000000 )
b1000000000 1
b1000000000 :
b1000000000 @
b1000000000 F
b1000000000 L
#1120
b1100001111 #
b1100001111 7
b1100001111 D
b1100001111 !
b1100001111 5
b1100001111 P
b1100111111 ,
b1100111111 4
b1100111111 =
b1100111111 C
b1100111111 I
b1100111111 O
b1100101111 +
b1100101111 3
b1100101111 <
b1100101111 B
b1100101111 H
b1100101111 N
b1100011111 *
b1100011111 2
b1100011111 ;
b1100011111 A
b1100011111 G
b1100011111 M
b1100001111 )
b1100001111 1
b1100001111 :
b1100001111 @
b1100001111 F
b1100001111 L
#1130
b0 #
b0 7
b0 D
b0 !
b0 5
b0 P
b0 ,
b0 4
b0 =
b0 C
b0 I
b0 O
b0 +
b0 3
b0 <
b0 B
b0 H
b0 N
b0 *
b0 2
b0 ;
b0 A
b0 G
b0 M
b0 )
b0 1
b0 :
b0 @
b0 F
b0 L
#1430
b1000000001 #
b1000000001 7
b1000000001 D
b1000000001 !
b1000000001 5
b1000000001 P
b1000110001 ,
b1000110001 4
b1000110001 =
b1000110001 C
b1000110001 I
b1000110001 O
b1000100001 +
b1000100001 3
b1000100001 <
b1000100001 B
b1000100001 H
b1000100001 N
b1000010001 *
b1000010001 2
b1000010001 ;
b1000010001 A
b1000010001 G
b1000010001 M
b1000000001 )
b1000000001 1
b1000000001 :
b1000000001 @
b1000000001 F
b1000000001 L
#1440
b1100001111 #
b1100001111 7
b1100001111 D
b1100001111 !
b1100001111 5
b1100001111 P
b1100111111 ,
b1100111111 4
b1100111111 =
b1100111111 C
b1100111111 I
b1100111111 O
b1100101111 +
b1100101111 3
b1100101111 <
b1100101111 B
b1100101111 H
b1100101111 N
b1100011111 *
b1100011111 2
b1100011111 ;
b1100011111 A
b1100011111 G
b1100011111 M
b1100001111 )
b1100001111 1
b1100001111 :
b1100001111 @
b1100001111 F
b1100001111 L
#1450
b0 #
b0 7
b0 D
b0 !
b0 5
b0 P
b0 ,
b0 4
b0 =
b0 C
b0 I
b0 O
b0 +
b0 3
b0 <
b0 B
b0 H
b0 N
b0 *
b0 2
b0 ;
b0 A
b0 G
b0 M
b0 )
b0 1
b0 :
b0 @
b0 F
b0 L
#1750
b1000000010 #
b1000000010 7
b1000000010 D
b1000000010 !
b1000000010 5
b1000000010 P
b1000110010 ,
b1000110010 4
b1000110010 =
b1000110010 C
b1000110010 I
b1000110010 O
b1000100010 +
b1000100010 3
b1000100010 <
b1000100010 B
b1000100010 H
b1000100010 N
b1000010010 *
b1000010010 2
b1000010010 ;
b1000010010 A
b1000010010 G
b1000010010 M
b1000000010 )
b1000000010 1
b1000000010 :
b1000000010 @
b1000000010 F
b1000000010 L
#1760
b1100001111 #
b1100001111 7
b1100001111 D
b1100001111 !
b1100001111 5
b1100001111 P
b1100111111 ,
b1100111111 4
b1100111111 =
b1100111111 C
b1100111111 I
b1100111111 O
b1100101111 +
b1100101111 3
b1100101111 <
b1100101111 B
b1100101111 H
b1100101111 N
b1100011111 *
b1100011111 2
b1100011111 ;
b1100011111 A
b1100011111 G
b1100011111 M
b1100001111 )
b1100001111 1
b1100001111 :
b1100001111 @
b1100001111 F
b1100001111 L
#1770
b0 #
b0 7
b0 D
b0 !
b0 5
b0 P
b0 ,
b0 4
b0 =
b0 C
b0 I
b0 O
b0 +
b0 3
b0 <
b0 B
b0 H
b0 N
b0 *
b0 2
b0 ;
b0 A
b0 G
b0 M
b0 )
b0 1
b0 :
b0 @
b0 F
b0 L
#2070
b1000000011 #
b1000000011 7
b1000000011 D
b1000000011 !
b1000000011 5
b1000000011 P
b1000110011 ,
b1000110011 4
b1000110011 =
b1000110011 C
b1000110011 I
b1000110011 O
b1000100011 +
b1000100011 3
b1000100011 <
b1000100011 B
b1000100011 H
b1000100011 N
b1000010011 *
b1000010011 2
b1000010011 ;
b1000010011 A
b1000010011 G
b1000010011 M
b1000000011 )
b1000000011 1
b1000000011 :
b1000000011 @
b1000000011 F
b1000000011 L
#2080
b1100001111 #
b1100001111 7
b1100001111 D
b1100001111 !
b1100001111 5
b1100001111 P
b1100111111 ,
b1100111111 4
b1100111111 =
b1100111111 C
b1100111111 I
b1100111111 O
b1100101111 +
b1100101111 3
b1100101111 <
b1100101111 B
b1100101111 H
b1100101111 N
b1100011111 *
b1100011111 2
b1100011111 ;
b1100011111 A
b1100011111 G
b1100011111 M
b1100001111 )
b1100001111 1
b1100001111 :
b1100001111 @
b1100001111 F
b1100001111 L
#2090
b0 #
b0 7
b0 D
b0 !
b0 5
b0 P
b0 ,
b0 4
b0 =
b0 C
b0 I
b0 O
b0 +
b0 3
b0 <
b0 B
b0 H
b0 N
b0 *
b0 2
b0 ;
b0 A
b0 G
b0 M
b0 )
b0 1
b0 :
b0 @
b0 F
b0 L
