last/sw.vcd
$date
	Mon Jul 20 22:04:57 2020
$end
$version
	Icarus Verilog
$end
$timescale
	1s
$end
$scope module swtest $end
$var wire 10 ! o3 [9:0] $end
$var wire 10 " o2 [9:0] $end
$var wire 10 # o1 [9:0] $end
$var wire 10 $ o0 [9:0] $end
$var reg 1 % clk $end
$var reg 10 & i0 [9:0] $end
$var reg 10 ' i1 [9:0] $end
$var reg 10 ( i2 [9:0] $end
$var reg 10 ) i3 [9:0] $end
$var reg 1 * rst $end
$scope module sw $end
$var wire 1 % clk $end
$var wire 10 + i0 [9:0] $end
$var wire 10 , i1 [9:0] $end
$var wire 10 - i2 [9:0] $end
$var wire 10 . i3 [9:0] $end
$var wire 1 * rst $end
$var wire 4 / req3 [3:0] $end
$var wire 4 0 req2 [3:0] $end
$var wire 4 1 req1 [3:0] $end
$var wire 4 2 req0 [3:0] $end
$var wire 10 3 o3 [9:0] $end
$var wire 10 4 o2 [9:0] $end
$var wire 10 5 o1 [9:0] $end
$var wire 10 6 o0 [9:0] $end
$var wire 1 7 full3 $end
$var wire 1 8 full2 $end
$var wire 1 9 full1 $end
$var wire 1 : full0 $end
$var wire 1 ; empty3 $end
$var wire 1 < empty2 $end
$var wire 1 = empty1 $end
$var wire 1 > empty0 $end
$var wire 10 ? co3 [9:0] $end
$var wire 10 @ co2 [9:0] $end
$var wire 10 A co1 [9:0] $end
$var wire 10 B co0 [9:0] $end
$var wire 1 C ack33 $end
$var wire 1 D ack32 $end
$var wire 1 E ack31 $end
$var wire 1 F ack30 $end
$var wire 1 G ack3 $end
$var wire 1 H ack23 $end
$var wire 1 I ack22 $end
$var wire 1 J ack21 $end
$var wire 1 K ack20 $end
$var wire 1 L ack2 $end
$var wire 1 M ack13 $end
$var wire 1 N ack12 $end
$var wire 1 O ack11 $end
$var wire 1 P ack10 $end
$var wire 1 Q ack1 $end
$var wire 1 R ack03 $end
$var wire 1 S ack02 $end
$var wire 1 T ack01 $end
$var wire 1 U ack00 $end
$var wire 1 V ack0 $end
$scope module ackor0 $end
$var wire 1 V ack $end
$var wire 1 F ack3 $end
$var wire 1 K ack2 $end
$var wire 1 P ack1 $end
$var wire 1 U ack0 $end
$upscope $end
$scope module ackor1 $end
$var wire 1 Q ack $end
$var wire 1 E ack3 $end
$var wire 1 J ack2 $end
$var wire 1 O ack1 $end
$var wire 1 T ack0 $end
$upscope $end
$scope module ackor2 $end
$var wire 1 L ack $end
$var wire 1 D ack3 $end
$var wire 1 I ack2 $end
$var wire 1 N ack1 $end
$var wire 1 S ack0 $end
$upscope $end
$scope module ackor3 $end
$var wire 1 G ack $end
$var wire 1 C ack3 $end
$var wire 1 H ack2 $end
$var wire 1 M ack1 $end
$var wire 1 R ack0 $end
$upscope $end
$scope module arb0 $end
$var wire 1 % clk $end
$var wire 1 W req0 $end
$var wire 1 X req1 $end
$var wire 1 Y req2 $end
$var wire 1 Z req3 $end
$var wire 1 * rst $end
$var reg 1 U ack0 $end
$var reg 1 T ack1 $end
$var reg 1 S ack2 $end
$var reg 1 R ack3 $end
$var reg 3 [ nstate [2:0] $end
$var reg 3 \ state [2:0] $end
$upscope $end
$scope module arb1 $end
$var wire 1 % clk $end
$var wire 1 ] req0 $end
$var wire 1 ^ req1 $end
$var wire 1 _ req2 $end
$var wire 1 ` req3 $end
$var wire 1 * rst $end
$var reg 1 P ack0 $end
$var reg 1 O ack1 $end
$var reg 1 N ack2 $end
$var reg 1 M ack3 $end
$var reg 3 a nstate [2:0] $end
$var reg 3 b state [2:0] $end
$upscope $end
$scope module arb2 $end
$var wire 1 % clk $end
$var wire 1 c req0 $end
$var wire 1 d req1 $end
$var wire 1 e req2 $end
$var wire 1 f req3 $end
$var wire 1 * rst $end
$var reg 1 K ack0 $end
$var reg 1 J ack1 $end
$var reg 1 I ack2 $end
$var reg 1 H ack3 $end
$var reg 3 g nstate [2:0] $end
$var reg 3 h state [2:0] $end
$upscope $end
$scope module arb3 $end
$var wire 1 % clk $end
$var wire 1 i req0 $end
$var wire 1 j req1 $end
$var wire 1 k req2 $end
$var wire 1 l req3 $end
$var wire 1 * rst $end
$var reg 1 F ack0 $end
$var reg 1 E ack1 $end
$var reg 1 D ack2 $end
$var reg 1 C ack3 $end
$var reg 3 m nstate [2:0] $end
$var reg 3 n state [2:0] $end
$upscope $end
$scope module cb $end
$var wire 4 o d0 [3:0] $end
$var wire 4 p d1 [3:0] $end
$var wire 4 q d2 [3:0] $end
$var wire 4 r d3 [3:0] $end
$var wire 10 s o3 [9:0] $end
$var wire 10 t o2 [9:0] $end
$var wire 10 u o1 [9:0] $end
$var wire 10 v o0 [9:0] $end
$var wire 10 w i3 [9:0] $end
$var wire 10 x i2 [9:0] $end
$var wire 10 y i1 [9:0] $end
$var wire 10 z i0 [9:0] $end
$scope module cbsel0 $end
$var wire 4 { d [3:0] $end
$var wire 10 | i3 [9:0] $end
$var wire 10 } i2 [9:0] $end
$var wire 10 ~ i1 [9:0] $end
$var wire 10 !" i0 [9:0] $end
$var reg 10 "" o [9:0] $end
$upscope $end
$scope module cbsel1 $end
$var wire 4 #" d [3:0] $end
$var wire 10 $" i3 [9:0] $end
$var wire 10 %" i2 [9:0] $end
$var wire 10 &" i1 [9:0] $end
$var wire 10 '" i0 [9:0] $end
$var reg 10 (" o [9:0] $end
$upscope $end
$scope module cbsel2 $end
$var wire 4 )" d [3:0] $end
$var wire 10 *" i3 [9:0] $end
$var wire 10 +" i2 [9:0] $end
$var wire 10 ," i1 [9:0] $end
$var wire 10 -" i0 [9:0] $end
$var reg 10 ." o [9:0] $end
$upscope $end
$scope module cbsel3 $end
$var wire 4 /" d [3:0] $end
$var wire 10 0" i3 [9:0] $end
$var wire 10 1" i2 [9:0] $end
$var wire 10 2" i1 [9:0] $end
$var wire 10 3" i0 [9:0] $end
$var reg 10 4" o [9:0] $end
$upscope $end
$upscope $end
$scope module ib0 $end
$var wire 1 V ack $end
$var wire 1 % clk $end
$var wire 10 5" pkti [9:0] $end
$var wire 1 * rst $end
$var wire 1 6" we $end
$var wire 4 7" req [3:0] $end
$var wire 1 8" re $end
$var wire 10 9" pkto [9:0] $end
$var wire 1 : full $end
$var wire 1 > empty $end
$scope module fifo $end
$var wire 1 % clk $end
$var wire 10 :" pkti [9:0] $end
$var wire 1 * rst $end
$var wire 1 6" we $end
$var wire 1 8" re $end
$var reg 1 > empty $end
$var reg 1 : full $end
$var reg 4 ;" head [3:0] $end
$var reg 4 <" headi [3:0] $end
$var reg 10 =" pkto [9:0] $end
$var reg 4 >" tail [3:0] $end
$upscope $end
$scope module ibsm $end
$var wire 1 V ack $end
$var wire 1 % clk $end
$var wire 1 > empty $end
$var wire 10 ?" pkto [9:0] $end
$var wire 1 * rst $end
$var reg 1 8" re $end
$var reg 4 @" req [3:0] $end
$var reg 3 A" state [2:0] $end
$upscope $end
$scope module mkwe $end
$var wire 10 B" pkti [9:0] $end
$var reg 1 6" we $end
$upscope $end
$upscope $end
$scope module ib1 $end
$var wire 1 Q ack $end
$var wire 1 % clk $end
$var wire 10 C" pkti [9:0] $end
$var wire 1 * rst $end
$var wire 1 D" we $end
$var wire 4 E" req [3:0] $end
$var wire 1 F" re $end
$var wire 10 G" pkto [9:0] $end
$var wire 1 9 full $end
$var wire 1 = empty $end
$scope module fifo $end
$var wire 1 % clk $end
$var wire 10 H" pkti [9:0] $end
$var wire 1 * rst $end
$var wire 1 D" we $end
$var wire 1 F" re $end
$var reg 1 = empty $end
$var reg 1 9 full $end
$var reg 4 I" head [3:0] $end
$var reg 4 J" headi [3:0] $end
$var reg 10 K" pkto [9:0] $end
$var reg 4 L" tail [3:0] $end
$upscope $end
$scope module ibsm $end
$var wire 1 Q ack $end
$var wire 1 % clk $end
$var wire 1 = empty $end
$var wire 10 M" pkto [9:0] $end
$var wire 1 * rst $end
$var reg 1 F" re $end
$var reg 4 N" req [3:0] $end
$var reg 3 O" state [2:0] $end
$upscope $end
$scope module mkwe $end
$var wire 10 P" pkti [9:0] $end
$var reg 1 D" we $end
$upscope $end
$upscope $end
$scope module ib2 $end
$var wire 1 L ack $end
$var wire 1 % clk $end
$var wire 10 Q" pkti [9:0] $end
$var wire 1 * rst $end
$var wire 1 R" we $end
$var wire 4 S" req [3:0] $end
$var wire 1 T" re $end
$var wire 10 U" pkto [9:0] $end
$var wire 1 8 full $end
$var wire 1 < empty $end
$scope module fifo $end
$var wire 1 % clk $end
$var wire 10 V" pkti [9:0] $end
$var wire 1 * rst $end
$var wire 1 R" we $end
$var wire 1 T" re $end
$var reg 1 < empty $end
$var reg 1 8 full $end
$var reg 4 W" head [3:0] $end
$var reg 4 X" headi [3:0] $end
$var reg 10 Y" pkto [9:0] $end
$var reg 4 Z" tail [3:0] $end
$upscope $end
$scope module ibsm $end
$var wire 1 L ack $end
$var wire 1 % clk $end
$var wire 1 < empty $end
$var wire 10 [" pkto [9:0] $end
$var wire 1 * rst $end
$var reg 1 T" re $end
$var reg 4 \" req [3:0] $end
$var reg 3 ]" state [2:0] $end
$upscope $end
$scope module mkwe $end
$var wire 10 ^" pkti [9:0] $end
$var reg 1 R" we $end
$upscope $end
$upscope $end
$scope module ib3 $end
$var wire 1 G ack $end
$var wire 1 % clk $end
$var wire 10 _" pkti [9:0] $end
$var wire 1 * rst $end
$var wire 1 `" we $end
$var wire 4 a" req [3:0] $end
$var wire 1 b" re $end
$var wire 10 c" pkto [9:0] $end
$var wire 1 7 full $end
$var wire 1 ; empty $end
$scope module fifo $end
$var wire 1 % clk $end
$var wire 10 d" pkti [9:0] $end
$var wire 1 * rst $end
$var wire 1 `" we $end
$var wire 1 b" re $end
$var reg 1 ; empty $end
$var reg 1 7 full $end
$var reg 4 e" head [3:0] $end
$var reg 4 f" headi [3:0] $end
$var reg 10 g" pkto [9:0] $end
$var reg 4 h" tail [3:0] $end
$upscope $end
$scope module ibsm $end
$var wire 1 G ack $end
$var wire 1 % clk $end
$var wire 1 ; empty $end
$var wire 10 i" pkto [9:0] $end
$var wire 1 * rst $end
$var reg 1 b" re $end
$var reg 4 j" req [3:0] $end
$var reg 3 k" state [2:0] $end
$upscope $end
$scope module mkwe $end
$var wire 10 l" pkti [9:0] $end
$var reg 1 `" we $end
$upscope $end
$upscope $end
$upscope $end
$upscope $end
$enddefinitions $end
#0
$dumpvars
b0 l"
b1 k"
b0 j"
b0 i"
b0 h"
b0 g"
b1 f"
b0 e"
b0 d"
b0 c"
0b"
b0 a"
0`"
b0 _"
b0 ^"
b1 ]"
b0 \"
b0 ["
b0 Z"
b0 Y"
b1 X"
b0 W"
b0 V"
b0 U"
0T"
b0 S"
0R"
b0 Q"
b0 P"
b1 O"
b0 N"
b0 M"
b0 L"
b0 K"
b1 J"
b0 I"
b0 H"
b0 G"
0F"
b0 E"
0D"
b0 C"
b0 B"
b1 A"
b0 @"
b0 ?"
b0 >"
b0 ="
b1 <"
b0 ;"
b0 :"
b0 9"
08"
b0 7"
06"
b0 5"
b0 4"
b0 3"
b0 2"
b0 1"
b0 0"
b0 /"
b0 ."
b0 -"
b0 ,"
b0 +"
b0 *"
b0 )"
b0 ("
b0 '"
b0 &"
b0 %"
b0 $"
b0 #"
b0 ""
b0 !"
b0 ~
b0 }
b0 |
b0 {
b0 z
b0 y
b0 x
b0 w
b0 v
b0 u
b0 t
b0 s
b0 r
b0 q
b0 p
b0 o
b0 n
b0 m
0l
0k
0j
0i
b0 h
b0 g
0f
0e
0d
0c
b0 b
b0 a
0`
0_
0^
0]
b0 \
b0 [
0Z
0Y
0X
0W
0V
0U
0T
0S
0R
0Q
0P
0O
0N
0M
0L
0K
0J
0I
0H
0G
0F
0E
0D
0C
b0 B
b0 A
b0 @
b0 ?
1>
1=
1<
1;
0:
09
08
07
b0 6
b0 5
b0 4
b0 3
b0 2
b0 1
b0 0
b0 /
b0 .
b0 -
b0 ,
b0 +
1*
b0 )
b0 (
b0 '
b0 &
0%
b0 $
b0 #
b0 "
b0 !
$end
#5
1%
#10
0%
0*
#15
b1 [
b1 a
b1 g
b1 m
1%
#20
16"
0%
b1000000000 &
b1000000000 +
b1000000000 5"
b1000000000 :"
b1000000000 B"
#25
16"
b10 <"
0>
b1000000000 B
b1000000000 z
b1000000000 !"
b1000000000 '"
b1000000000 -"
b1000000000 3"
b1000000000 9"
b1000000000 ="
b1000000000 ?"
b1 n
b1 h
b1 b
b1 \
b1 ;"
1%
#30
16"
0%
b100000000 &
b100000000 +
b100000000 5"
b100000000 :"
b100000000 B"
#35
16"
b11 <"
b10 ;"
b10 A"
b10 [
b10 a
b10 g
b10 m
1%
#40
16"
0%
b100000001 &
b100000001 +
b100000001 5"
b100000001 :"
b100000001 B"
#45
1W
16"
b100 <"
b10 n
b10 h
b10 b
b10 \
b1 2
b1 7"
b1 @"
b11 ;"
1%
#50
16"
0%
b1100000010 &
b1100000010 +
b1100000010 5"
b1100000010 :"
b1100000010 B"
#55
1V
b1000000000 $
b1000000000 6
b1000000000 v
b1000000000 ""
16"
b101 <"
b100 ;"
b1 o
b1 {
1U
b11 a
b11 g
b11 m
1%
#60
06"
0%
b0 &
b0 +
b0 5"
b0 :"
b0 B"
#65
b11 n
b11 h
b11 b
b100 A"
1%
#70
16"
0%
b1010010001 &
b1010010001 +
b1010010001 5"
b1010010001 :"
b1010010001 B"
#75
16"
b110 <"
b101 ;"
18"
b0 a
b0 g
b0 m
1%
#80
16"
0%
b110010000 &
b110010000 +
b110010000 5"
b110010000 :"
b110010000 B"
#85
b100000000 $
b100000000 6
b100000000 v
b100000000 ""
16"
b111 <"
b100000000 B
b100000000 z
b100000000 !"
b100000000 '"
b100000000 -"
b100000000 3"
b100000000 9"
b100000000 ="
b100000000 ?"
b0 n
b0 h
b0 b
b1 >"
b110 ;"
1%
#90
16"
0%
b110010001 &
b110010001 +
b110010001 5"
b110010001 :"
b110010001 B"
#95
b100000001 $
b100000001 6
b100000001 v
b100000001 ""
16"
b1000 <"
b100000001 B
b100000001 z
b100000001 !"
b100000001 '"
b100000001 -"
b100000001 3"
b100000001 9"
b100000001 ="
b100000001 ?"
b10 >"
b111 ;"
b1 a
b1 g
b1 m
1%
#100
16"
0%
b1110010010 &
b1110010010 +
b1110010010 5"
b1110010010 :"
b1110010010 B"
#105
b1100000010 $
b1100000010 6
b1100000010 v
b1100000010 ""
16"
b1001 <"
b1100000010 B
b1100000010 z
b1100000010 !"
b1100000010 '"
b1100000010 -"
b1100000010 3"
b1100000010 9"
b1100000010 ="
b1100000010 ?"
b1 n
b1 h
b1 b
b11 >"
b1000 ;"
1%
#110
06"
0%
b0 &
b0 +
b0 5"
b0 :"
b0 B"
#115
b1010010001 $
b1010010001 6
b1010010001 v
b1010010001 ""
b1010010001 B
b1010010001 z
b1010010001 !"
b1010010001 '"
b1010010001 -"
b1010010001 3"
b1010010001 9"
b1010010001 ="
b1010010001 ?"
0W
b100 >"
b0 2
b0 7"
b0 @"
08"
b1 A"
b10 a
b10 g
b10 m
1%
#120
16"
0%
b1000000000 &
b1000000000 +
b1000000000 5"
b1000000000 :"
b1000000000 B"
#125
0V
b0 $
b0 6
b0 v
b0 ""
16"
b1010 <"
b10 n
b10 h
b10 b
b0 o
b0 {
0U
b10 A"
b1001 ;"
b11 [
1%
#130
16"
0%
b1100001111 &
b1100001111 +
b1100001111 5"
b1100001111 :"
b1100001111 B"
#135
1]
16"
b1011 <"
b1010 ;"
b10 2
b10 7"
b10 @"
b11 \
b11 a
b11 g
b11 m
1%
#140
16"
0%
b1000000001 &
b1000000001 +
b1000000001 5"
b1000000001 :"
b1000000001 B"
#145
1V
b1010010001 #
b1010010001 5
b1010010001 u
b1010010001 ("
16"
b1100 <"
b11 n
b11 h
b1 p
b1 #"
1P
b11 b
b1011 ;"
b0 [
1%
#150
16"
0%
b1100001111 &
b1100001111 +
b1100001111 5"
b1100001111 :"
b1100001111 B"
#155
16"
b1101 <"
b1100 ;"
b100 A"
b0 \
b0 g
b0 m
1%
#160
16"
0%
b1000000010 &
b1000000010 +
b1000000010 5"
b1000000010 :"
b1000000010 B"
#165
16"
b1110 <"
b0 n
b0 h
18"
b1101 ;"
b1 [
1%
#170
16"
0%
b1100001111 &
b1100001111 +
b1100001111 5"
b1100001111 :"
b1100001111 B"
#175
b110010000 #
b110010000 5
b110010000 u
b110010000 ("
16"
b1111 <"
b110010000 B
b110010000 z
b110010000 !"
b110010000 '"
b110010000 -"
b110010000 3"
b110010000 9"
b110010000 ="
b110010000 ?"
b101 >"
b1110 ;"
b1 \
b1 g
b1 m
1%
#180
16"
0%
b1000000011 &
b1000000011 +
b1000000011 5"
b1000000011 :"
b1000000011 B"
#185
b110010001 #
b110010001 5
b110010001 u
b110010001 ("
16"
b0 <"
b110010001 B
b110010001 z
b110010001 !"
b110010001 '"
b110010001 -"
b110010001 3"
b110010001 9"
b110010001 ="
b110010001 ?"
b1 n
b1 h
b110 >"
b1111 ;"
b10 [
1%
#190
16"
0%
b1100001111 &
b1100001111 +
b1100001111 5"
b1100001111 :"
b1100001111 B"
#195
b1110010010 #
b1110010010 5
b1110010010 u
b1110010010 ("
16"
b1 <"
b1110010010 B
b1110010010 z
b1110010010 !"
b1110010010 '"
b1110010010 -"
b1110010010 3"
b1110010010 9"
b1110010010 ="
b1110010010 ?"
b111 >"
b0 ;"
b10 \
b10 g
b10 m
1%
#200
06"
0%
b0 &
b0 +
b0 5"
b0 :"
b0 B"
#205
b1000000000 #
b1000000000 5
b1000000000 u
b1000000000 ("
0]
b1000000000 B
b1000000000 z
b1000000000 !"
b1000000000 '"
b1000000000 -"
b1000000000 3"
b1000000000 9"
b1000000000 ="
b1000000000 ?"
b10 n
b10 h
b0 2
b0 7"
b0 @"
08"
b1 A"
b1000 >"
b11 [
1%
#210
1D"
0%
b1000010000 '
b1000010000 ,
b1000010000 C"
b1000010000 H"
b1000010000 P"
#215
0V
b0 #
b0 5
b0 u
b0 ("
1D"
b10 J"
0=
b1000010000 A
b1000010000 y
b1000010000 ~
b1000010000 &"
b1000010000 ,"
b1000010000 2"
b1000010000 G"
b1000010000 K"
b1000010000 M"
b10 A"
b1 I"
b11 \
b0 p
b0 #"
0P
b0 a
b11 g
b11 m
1%
#220
1D"
0%
b1100011111 '
b1100011111 ,
b1100011111 C"
b1100011111 H"
b1100011111 P"
#225
1W
1D"
b11 J"
b11 n
b11 h
b0 b
b10 O"
b10 I"
b1 2
b1 7"
b1 @"
b0 [
1%
#230
1D"
0%
b1000010001 '
b1000010001 ,
b1000010001 C"
b1000010001 H"
b1000010001 P"
#235
1V
1X
b1000000000 $
b1000000000 6
b1000000000 v
b1000000000 ""
1D"
b100 J"
b11 I"
b1 1
b1 E"
b1 N"
b1 o
b1 {
1U
b0 \
b1 a
b0 g
b0 m
1%
#240
1D"
0%
b1100011111 '
b1100011111 ,
b1100011111 C"
b1100011111 H"
b1100011111 P"
#245
1D"
b101 J"
b0 n
b0 h
b1 b
b100 I"
b100 A"
1%
#250
1D"
0%
b1000010010 '
b1000010010 ,
b1000010010 C"
b1000010010 H"
b1000010010 P"
#255
1D"
b110 J"
18"
b101 I"
b10 a
b1 g
b1 m
1%
#260
1D"
0%
b1100011111 '
b1100011111 ,
b1100011111 C"
b1100011111 H"
b1100011111 P"
#265
b1100001111 $
b1100001111 6
b1100001111 v
b1100001111 ""
b1100001111 B
b1100001111 z
b1100001111 !"
b1100001111 '"
b1100001111 -"
b1100001111 3"
b1100001111 9"
b1100001111 ="
b1100001111 ?"
1D"
b111 J"
b1 n
b1 h
b10 b
b110 I"
b1001 >"
1%
#270
1D"
0%
b1000010011 '
b1000010011 ,
b1000010011 C"
b1000010011 H"
b1000010011 P"
#275
b1000000001 $
b1000000001 6
b1000000001 v
b1000000001 ""
0W
b1000000001 B
b1000000001 z
b1000000001 !"
b1000000001 '"
b1000000001 -"
b1000000001 3"
b1000000001 9"
b1000000001 ="
b1000000001 ?"
1D"
b1000 J"
b1010 >"
b0 2
b0 7"
b0 @"
08"
b1 A"
b111 I"
b11 a
b10 g
b10 m
1%
#280
1D"
0%
b1100011111 '
b1100011111 ,
b1100011111 C"
b1100011111 H"
b1100011111 P"
#285
1Q
0V
b1000010000 $
b1000010000 6
b1000010000 v
b1000010000 ""
1D"
b1001 J"
b10 n
b10 h
b11 b
1T
b10 o
b10 {
0U
b1000 I"
b10 A"
1%
#290
0D"
0%
b0 '
b0 ,
b0 C"
b0 H"
b0 P"
#295
1]
b10 2
b10 7"
b10 @"
b100 O"
b0 a
b11 g
b11 m
1%
#300
1R"
0%
b1000100000 (
b1000100000 -
b1000100000 Q"
b1000100000 V"
b1000100000 ^"
#305
1V
b1000010000 $
b1000010000 6
b1000010000 v
b1000010000 ""
b1000000001 #
b1000000001 5
b1000000001 u
b1000000001 ("
1R"
b10 X"
0<
b1000100000 @
b1000100000 x
b1000100000 }
b1000100000 %"
b1000100000 +"
b1000100000 1"
b1000100000 U"
b1000100000 Y"
b1000100000 ["
b11 n
b11 h
b1 p
b1 #"
1P
b0 b
b1 W"
1F"
1%
#310
1R"
0%
b1100101111 (
b1100101111 -
b1100101111 Q"
b1100101111 V"
b1100101111 ^"
#315
b1100011111 $
b1100011111 6
b1100011111 v
b1100011111 ""
b1000000001 #
b1000000001 5
b1000000001 u
b1000000001 ("
b1100011111 A
b1100011111 y
b1100011111 ~
b1100011111 &"
b1100011111 ,"
b1100011111 2"
b1100011111 G"
b1100011111 K"
b1100011111 M"
1R"
b11 X"
b100 A"
b1 L"
b10 W"
b10 ]"
b0 g
b0 m
1%
#320
1R"
0%
b1000100001 (
b1000100001 -
b1000100001 Q"
b1000100001 V"
b1000100001 ^"
#325
b1000010001 $
b1000010001 6
b1000010001 v
b1000010001 ""
b1000000001 #
b1000000001 5
b1000000001 u
b1000000001 ("
1Y
0X
b1000010001 A
b1000010001 y
b1000010001 ~
b1000010001 &"
b1000010001 ,"
b1000010001 2"
b1000010001 G"
b1000010001 K"
b1000010001 M"
1R"
b100 X"
b0 n
b0 h
b1 0
b1 S"
b1 \"
b11 W"
b0 1
b0 E"
b0 N"
0F"
b1 O"
b10 L"
18"
1%
#330
1R"
0%
b1100101111 (
b1100101111 -
b1100101111 Q"
b1100101111 V"
b1100101111 ^"
#335
1L
0Q
b1100001111 #
b1100001111 5
b1100001111 u
b1100001111 ("
b1000100000 $
b1000100000 6
b1000100000 v
b1000100000 ""
b1100001111 B
b1100001111 z
b1100001111 !"
b1100001111 '"
b1100001111 -"
b1100001111 3"
b1100001111 9"
b1100001111 ="
b1100001111 ?"
1R"
b101 X"
b1011 >"
b10 O"
b100 W"
1S
b100 o
b100 {
0T
b1 g
b1 m
1%
#340
1R"
0%
b1000100010 (
b1000100010 -
b1000100010 Q"
b1000100010 V"
b1000100010 ^"
#345
b1000100000 $
b1000100000 6
b1000100000 v
b1000100000 ""
b1000000010 #
b1000000010 5
b1000000010 u
b1000000010 ("
1^
0]
b1000000010 B
b1000000010 z
b1000000010 !"
b1000000010 '"
b1000000010 -"
b1000000010 3"
b1000000010 9"
b1000000010 ="
b1000000010 ?"
1R"
b110 X"
b1 n
b1 h
b100 ]"
b101 W"
b10 1
b10 E"
b10 N"
b0 2
b0 7"
b0 @"
08"
b1 A"
b1100 >"
1%
#350
1R"
0%
b1100101111 (
b1100101111 -
b1100101111 Q"
b1100101111 V"
b1100101111 ^"
#355
1Q
0V
b1000010001 #
b1000010001 5
b1000010001 u
b1000010001 ("
1R"
b111 X"
b10 A"
b110 W"
1T"
1O
b10 p
b10 #"
0P
b10 g
b10 m
1%
#360
1R"
0%
b1000100011 (
b1000100011 -
b1000100011 Q"
b1000100011 V"
b1000100011 ^"
#365
b1100101111 $
b1100101111 6
b1100101111 v
b1100101111 ""
b1000010001 #
b1000010001 5
b1000010001 u
b1000010001 ("
1c
1R"
b1000 X"
b1100101111 @
b1100101111 x
b1100101111 }
b1100101111 %"
b1100101111 +"
b1100101111 1"
b1100101111 U"
b1100101111 Y"
b1100101111 ["
b10 n
b10 h
b1 Z"
b111 W"
b100 O"
b100 2
b100 7"
b100 @"
1%
#370
1R"
0%
b1100101111 (
b1100101111 -
b1100101111 Q"
b1100101111 V"
b1100101111 ^"
#375
1V
b1000100001 $
b1000100001 6
b1000100001 v
b1000100001 ""
b1000010001 #
b1000010001 5
b1000010001 u
b1000010001 ("
0Y
b1000000010 "
b1000000010 4
b1000000010 t
b1000000010 ."
1R"
b1001 X"
b1000100001 @
b1000100001 x
b1000100001 }
b1000100001 %"
b1000100001 +"
b1000100001 1"
b1000100001 U"
b1000100001 Y"
b1000100001 ["
1F"
b10 Z"
b1000 W"
b0 0
b0 S"
b0 \"
0T"
b1 ]"
b1 q
b1 )"
1K
b11 m
1%
#380
0R"
0%
b0 (
b0 -
b0 Q"
b0 V"
b0 ^"
#385
0L
b1100011111 #
b1100011111 5
b1100011111 u
b1100011111 ("
b1000000010 "
b1000000010 4
b1000000010 t
b1000000010 ."
b0 $
b0 6
b0 v
b0 ""
b1100011111 A
b1100011111 y
b1100011111 ~
b1100011111 &"
b1100011111 ,"
b1100011111 2"
b1100011111 G"
b1100011111 K"
b1100011111 M"
b11 n
b0 o
b0 {
0S
b10 ]"
b11 L"
b100 A"
b1 [
1%
#390
1`"
0%
b1000110000 )
b1000110000 .
b1000110000 _"
b1000110000 d"
b1000110000 l"
#395
b1000010010 #
b1000010010 5
b1000010010 u
b1000010010 ("
b1000000010 "
b1000000010 4
b1000000010 t
b1000000010 ."
0^
1_
b1000010010 A
b1000010010 y
b1000010010 ~
b1000010010 &"
b1000010010 ,"
b1000010010 2"
b1000010010 G"
b1000010010 K"
b1000010010 M"
1`"
b10 f"
0;
b1000110000 ?
b1000110000 w
b1000110000 |
b1000110000 $"
b1000110000 *"
b1000110000 0"
b1000110000 c"
b1000110000 g"
b1000110000 i"
18"
b100 L"
b0 1
b0 E"
b0 N"
0F"
b1 O"
b10 0
b10 S"
b10 \"
b1 e"
b1 \
b0 m
1%
#400
1`"
0%
b1100111111 )
b1100111111 .
b1100111111 _"
b1100111111 d"
b1100111111 l"
#405
1L
0Q
b1100001111 "
b1100001111 4
b1100001111 t
b1100001111 ."
b1000100001 #
b1000100001 5
b1000100001 u
b1000100001 ("
b1100001111 B
b1100001111 z
b1100001111 !"
b1100001111 '"
b1100001111 -"
b1100001111 3"
b1100001111 9"
b1100001111 ="
b1100001111 ?"
1`"
b11 f"
b0 n
1N
b100 p
b100 #"
0O
b10 k"
b10 e"
b10 O"
b1101 >"
b10 [
1%
#410
1`"
0%
b1000110001 )
b1000110001 .
b1000110001 _"
b1000110001 d"
b1000110001 l"
#415
b1000100001 #
b1000100001 5
b1000100001 u
b1000100001 ("
b1000000011 "
b1000000011 4
b1000000011 t
b1000000011 ."
0c
1d
1Z
b1000000011 B
b1000000011 z
b1000000011 !"
b1000000011 '"
b1000000011 -"
b1000000011 3"
b1000000011 9"
b1000000011 ="
b1000000011 ?"
1`"
b100 f"
b1110 >"
b0 2
b0 7"
b0 @"
08"
b1 A"
b100 1
b100 E"
b100 N"
b100 ]"
b11 e"
b1 /
b1 a"
b1 j"
b10 \
b1 m
1%
#420
1`"
0%
b1100111111 )
b1100111111 .
b1100111111 _"
b1100111111 d"
b1100111111 l"
#425
1G
1Q
0V
b1000010010 "
b1000010010 4
b1000010010 t
b1000010010 ."
b1000110000 $
b1000110000 6
b1000110000 v
b1000110000 ""
1`"
b101 f"
b1 n
1J
b10 q
b10 )"
0K
b1000 o
b1000 {
1R
b100 e"
1T"
b10 A"
1%
#430
1`"
0%
b1000110010 )
b1000110010 .
b1000110010 _"
b1000110010 d"
b1000110010 l"
#435
b1000110000 $
b1000110000 6
b1000110000 v
b1000110000 ""
b1100101111 #
b1100101111 5
b1100101111 u
b1100101111 ("
b1000010010 "
b1000010010 4
b1000010010 t
b1000010010 ."
1i
b1100101111 @
b1100101111 x
b1100101111 }
b1100101111 %"
b1100101111 +"
b1100101111 1"
b1100101111 U"
b1100101111 Y"
b1100101111 ["
1`"
b110 f"
b1000 2
b1000 7"
b1000 @"
b100 O"
b11 Z"
b101 e"
b100 k"
b10 m
1%
#440
1`"
0%
b1100111111 )
b1100111111 .
b1100111111 _"
b1100111111 d"
b1100111111 l"
#445
b1000110000 $
b1000110000 6
b1000110000 v
b1000110000 ""
b1000100010 #
b1000100010 5
b1000100010 u
b1000100010 ("
b1000010010 "
b1000010010 4
b1000010010 t
b1000010010 ."
1V
b1000000011 !
b1000000011 3
b1000000011 s
b1000000011 4"
0_
b1000100010 @
b1000100010 x
b1000100010 }
b1000100010 %"
b1000100010 +"
b1000100010 1"
b1000100010 U"
b1000100010 Y"
b1000100010 ["
1`"
b111 f"
b1 r
b1 /"
1F
b10 n
1b"
b110 e"
b0 0
b0 S"
b0 \"
0T"
b1 ]"
b100 Z"
1F"
1%
#450
1`"
0%
b1000110011 )
b1000110011 .
b1000110011 _"
b1000110011 d"
b1000110011 l"
#455
0L
b1100111111 $
b1100111111 6
b1100111111 v
b1100111111 ""
b1100011111 "
b1100011111 4
b1100011111 t
b1100011111 ."
b1000000011 !
b1000000011 3
b1000000011 s
b1000000011 4"
b0 #
b0 5
b0 u
b0 ("
b1100011111 A
b1100011111 y
b1100011111 ~
b1100011111 &"
b1100011111 ,"
b1100011111 2"
b1100011111 G"
b1100011111 K"
b1100011111 M"
1`"
b1000 f"
b1100111111 ?
b1100111111 w
b1100111111 |
b1100111111 $"
b1100111111 *"
b1100111111 0"
b1100111111 c"
b1100111111 g"
b1100111111 i"
b100 A"
b101 L"
b10 ]"
b1 h"
b111 e"
b0 p
b0 #"
0N
b1 a
1%
#460
1`"
0%
b1100111111 )
b1100111111 .
b1100111111 _"
b1100111111 d"
b1100111111 l"
