kadai6/vm.vcd
$date
	Fri Jul 03 20:31:29 2020
$end
$version
	Icarus Verilog
$end
$timescale
	1ps
$end
$scope module test $end
$var wire 1 ! out $end
$var wire 3 " change [2:0] $end
$var reg 1 # a $end
$var reg 1 $ b $end
$var reg 1 % clk $end
$var reg 1 & rst $end
$scope module vm $end
$var wire 1 ' _023_ $end
$var wire 1 ( _030_ $end
$var wire 1 ) _059_ $end
$var wire 1 * _066_ $end
$var wire 1 + _067_ $end
$var wire 1 , _068_ $end
$var wire 1 - _069_ $end
$var wire 1 . _070_ $end
$var wire 1 / _071_ $end
$var wire 1 # a $end
$var wire 1 $ b $end
$var wire 1 % clk $end
$var wire 1 & rst $end
$var wire 6 0 state [5:0] $end
$var wire 1 ! out $end
$var wire 6 1 nstate [5:0] $end
$var wire 3 2 change [2:0] $end
$var wire 1 3 _065_ $end
$var wire 1 4 _064_ $end
$var wire 1 5 _063_ $end
$var wire 1 6 _062_ $end
$var wire 1 7 _061_ $end
$var wire 1 8 _060_ $end
$var wire 1 9 _058_ $end
$var wire 1 : _057_ $end
$var wire 1 ; _056_ $end
$var wire 1 < _055_ $end
$var wire 1 = _054_ $end
$var wire 1 > _053_ $end
$var wire 1 ? _052_ $end
$var wire 1 @ _051_ $end
$var wire 1 A _050_ $end
$var wire 1 B _049_ $end
$var wire 1 C _048_ $end
$var wire 1 D _047_ $end
$var wire 1 E _046_ $end
$var wire 1 F _045_ $end
$var wire 1 G _044_ $end
$var wire 1 H _043_ $end
$var wire 1 I _042_ $end
$var wire 1 J _041_ $end
$var wire 1 K _040_ $end
$var wire 1 L _039_ $end
$var wire 1 M _038_ $end
$var wire 1 N _037_ $end
$var wire 1 O _036_ $end
$var wire 1 P _035_ $end
$var wire 1 Q _034_ $end
$var wire 1 R _033_ $end
$var wire 1 S _032_ $end
$var wire 1 T _031_ $end
$var wire 1 U _029_ $end
$var wire 1 V _028_ $end
$var wire 1 W _027_ $end
$var wire 1 X _026_ $end
$var wire 1 Y _025_ $end
$var wire 1 Z _024_ $end
$scope module _072_ $end
$var wire 1 ) A $end
$var wire 1 U Y $end
$upscope $end
$scope module _073_ $end
$var wire 1 ( A $end
$var wire 1 Q Y $end
$upscope $end
$scope module _074_ $end
$var wire 1 3 A $end
$var wire 1 P Y $end
$upscope $end
$scope module _075_ $end
$var wire 1 5 A $end
$var wire 1 O Y $end
$upscope $end
$scope module _076_ $end
$var wire 1 ' B $end
$var wire 1 [ I0_out $end
$var wire 1 N Y $end
$var wire 1 Q A $end
$upscope $end
$scope module _077_ $end
$var wire 1 ' B $end
$var wire 1 M Y $end
$var wire 1 Q A $end
$upscope $end
$scope module _078_ $end
$var wire 1 ( A $end
$var wire 1 ' B $end
$var wire 1 \ I0_out $end
$var wire 1 L Y $end
$upscope $end
$scope module _079_ $end
$var wire 1 K Y $end
$var wire 1 L A $end
$upscope $end
$scope module _080_ $end
$var wire 1 6 A $end
$var wire 1 5 B $end
$var wire 1 ] I0_out $end
$var wire 1 J Y $end
$upscope $end
$scope module _081_ $end
$var wire 1 4 A $end
$var wire 1 3 B $end
$var wire 1 ^ I0_out $end
$var wire 1 I Y $end
$upscope $end
$scope module _082_ $end
$var wire 1 H Y $end
$var wire 1 I B $end
$var wire 1 J A $end
$upscope $end
$scope module _083_ $end
$var wire 1 _ I0_out $end
$var wire 1 G Y $end
$var wire 1 I B $end
$var wire 1 J A $end
$upscope $end
$scope module _084_ $end
$var wire 1 7 A $end
$var wire 1 F Y $end
$var wire 1 G B $end
$upscope $end
$scope module _085_ $end
$var wire 1 ` I0_out $end
$var wire 1 a I1_out $end
$var wire 1 > Y $end
$var wire 1 P C $end
$var wire 1 F B $end
$var wire 1 K A $end
$upscope $end
$scope module _086_ $end
$var wire 1 7 A $end
$var wire 1 b I0_out $end
$var wire 1 E Y $end
$var wire 1 M B $end
$upscope $end
$scope module _087_ $end
$var wire 1 c I0_out $end
$var wire 1 d I1_out $end
$var wire 1 = Y $end
$var wire 1 E C $end
$var wire 1 F B $end
$var wire 1 K A $end
$upscope $end
$scope module _088_ $end
$var wire 1 7 A $end
$var wire 1 6 D $end
$var wire 1 e I0_out $end
$var wire 1 f I1_out $end
$var wire 1 g I2_out $end
$var wire 1 D Y $end
$var wire 1 L C $end
$var wire 1 M B $end
$upscope $end
$scope module _089_ $end
$var wire 1 < Y $end
$var wire 1 D A $end
$upscope $end
$scope module _090_ $end
$var wire 1 6 A $end
$var wire 1 5 D $end
$var wire 1 h I0_out $end
$var wire 1 i I1_out $end
$var wire 1 j I2_out $end
$var wire 1 C Y $end
$var wire 1 L C $end
$var wire 1 M B $end
$upscope $end
$scope module _091_ $end
$var wire 1 ; Y $end
$var wire 1 C A $end
$upscope $end
$scope module _092_ $end
$var wire 1 5 A $end
$var wire 1 4 D $end
$var wire 1 k I0_out $end
$var wire 1 l I1_out $end
$var wire 1 m I2_out $end
$var wire 1 B Y $end
$var wire 1 L C $end
$var wire 1 M B $end
$upscope $end
$scope module _093_ $end
$var wire 1 : Y $end
$var wire 1 B A $end
$upscope $end
$scope module _094_ $end
$var wire 1 ' B $end
$var wire 1 n I1_out $end
$var wire 1 S Y $end
$var wire 1 J C $end
$var wire 1 Q A $end
$upscope $end
$scope module _095_ $end
$var wire 1 7 A $end
$var wire 1 o I0_out $end
$var wire 1 p I1_out $end
$var wire 1 A Y $end
$var wire 1 N C $end
$var wire 1 H B $end
$upscope $end
$scope module _096_ $end
$var wire 1 4 A $end
$var wire 1 q I0_out $end
$var wire 1 @ Y $end
$var wire 1 S B $end
$upscope $end
$scope module _097_ $end
$var wire 1 r I0_out $end
$var wire 1 s I1_out $end
$var wire 1 9 Y $end
$var wire 1 A C $end
$var wire 1 @ B $end
$var wire 1 L A $end
$upscope $end
$scope module _098_ $end
$var wire 1 8 A $end
$var wire 1 t I0_out $end
$var wire 1 u I1_out $end
$var wire 1 ? Y $end
$var wire 1 O C $end
$var wire 1 G B $end
$upscope $end
$scope module _099_ $end
$var wire 1 T Y $end
$var wire 1 ? B $end
$var wire 1 N A $end
$upscope $end
$scope module _100_ $end
$var wire 1 4 A $end
$var wire 1 R Y $end
$var wire 1 N B $end
$upscope $end
$scope module _101_ $end
$var wire 1 ) A $end
$var wire 1 Z Y $end
$upscope $end
$scope module _102_ $end
$var wire 1 ) A $end
$var wire 1 Y Y $end
$upscope $end
$scope module _103_ $end
$var wire 1 ) A $end
$var wire 1 X Y $end
$upscope $end
$scope module _104_ $end
$var wire 1 ) A $end
$var wire 1 W Y $end
$upscope $end
$scope module _105_ $end
$var wire 1 ) A $end
$var wire 1 V Y $end
$upscope $end
$scope module _106_ $end
$var wire 1 % CLK $end
$var wire 1 v D $end
$var wire 1 w \D&S $end
$var wire 1 x D_ $end
$var wire 1 y I0_CLEAR $end
$var wire 1 z I0_SET $end
$var wire 1 { I7_out $end
$var wire 1 | P0002 $end
$var wire 1 } P0003 $end
$var wire 1 * R $end
$var wire 1 ~ S $end
$var wire 1 !" \S&R $end
$var wire 1 "" \~D&R $end
$var wire 1 #" Q $end
$var reg 1 $" NOTIFIER $end
$upscope $end
$scope module _107_ $end
$var wire 1 % CLK $end
$var wire 1 %" D $end
$var wire 1 &" \D&S $end
$var wire 1 '" D_ $end
$var wire 1 (" I0_CLEAR $end
$var wire 1 )" I0_SET $end
$var wire 1 *" I7_out $end
$var wire 1 +" P0002 $end
$var wire 1 ," P0003 $end
$var wire 1 + R $end
$var wire 1 -" S $end
$var wire 1 ." \S&R $end
$var wire 1 /" \~D&R $end
$var wire 1 0" Q $end
$var reg 1 1" NOTIFIER $end
$upscope $end
$scope module _108_ $end
$var wire 1 % CLK $end
$var wire 1 2" D $end
$var wire 1 3" \D&S $end
$var wire 1 4" D_ $end
$var wire 1 5" I0_CLEAR $end
$var wire 1 6" I0_SET $end
$var wire 1 7" I7_out $end
$var wire 1 8" P0002 $end
$var wire 1 9" P0003 $end
$var wire 1 , R $end
$var wire 1 :" S $end
$var wire 1 ;" \S&R $end
$var wire 1 <" \~D&R $end
$var wire 1 =" Q $end
$var reg 1 >" NOTIFIER $end
$upscope $end
$scope module _109_ $end
$var wire 1 % CLK $end
$var wire 1 ?" D $end
$var wire 1 @" \D&S $end
$var wire 1 A" D_ $end
$var wire 1 B" I0_CLEAR $end
$var wire 1 C" I0_SET $end
$var wire 1 D" I7_out $end
$var wire 1 E" P0002 $end
$var wire 1 F" P0003 $end
$var wire 1 - R $end
$var wire 1 G" S $end
$var wire 1 H" \S&R $end
$var wire 1 I" \~D&R $end
$var wire 1 J" Q $end
$var reg 1 K" NOTIFIER $end
$upscope $end
$scope module _110_ $end
$var wire 1 % CLK $end
$var wire 1 L" D $end
$var wire 1 M" \D&S $end
$var wire 1 N" D_ $end
$var wire 1 O" I0_CLEAR $end
$var wire 1 P" I0_SET $end
$var wire 1 Q" I7_out $end
$var wire 1 R" P0002 $end
$var wire 1 S" P0003 $end
$var wire 1 . R $end
$var wire 1 T" S $end
$var wire 1 U" \S&R $end
$var wire 1 V" \~D&R $end
$var wire 1 W" Q $end
$var reg 1 X" NOTIFIER $end
$upscope $end
$scope module _111_ $end
$var wire 1 % CLK $end
$var wire 1 Y" D $end
$var wire 1 Z" \D&S $end
$var wire 1 [" D_ $end
$var wire 1 \" I0_CLEAR $end
$var wire 1 ]" I0_SET $end
$var wire 1 ^" I7_out $end
$var wire 1 _" P0002 $end
$var wire 1 `" P0003 $end
$var wire 1 a" R $end
$var wire 1 / S $end
$var wire 1 b" \S&R $end
$var wire 1 c" \~D&R $end
$var wire 1 d" Q $end
$var reg 1 e" NOTIFIER $end
$upscope $end
$upscope $end
$upscope $end
$enddefinitions $end
#0
$dumpvars
xe"
xd"
xc"
xb"
1a"
x`"
x_"
x^"
x]"
0\"
x["
xZ"
xY"
xX"
xW"
xV"
xU"
1T"
xS"
xR"
xQ"
0P"
xO"
xN"
xM"
xL"
xK"
xJ"
xI"
xH"
1G"
xF"
xE"
xD"
0C"
xB"
xA"
x@"
x?"
x>"
x="
x<"
x;"
1:"
x9"
x8"
x7"
06"
x5"
x4"
x3"
x2"
x1"
x0"
x/"
x."
1-"
x,"
x+"
x*"
0)"
x("
x'"
x&"
x%"
x$"
x#"
x""
x!"
1~
x}
x|
x{
0z
xy
xx
xw
xv
xu
xt
xs
xr
xq
xp
xo
xn
xm
xl
xk
xj
xi
xh
xg
xf
xe
xd
xc
xb
xa
x`
x_
x^
x]
0\
x[
xZ
xY
xX
xW
xV
xU
xT
xS
xR
xQ
xP
xO
xN
xM
xL
xK
xJ
xI
xH
xG
xF
xE
xD
xC
xB
xA
x@
x?
x>
x=
x<
x;
x:
x9
x8
x7
x6
x5
x4
x3
bx 2
bx 1
bx 0
x/
x.
x-
x,
x+
x*
1)
0(
0'
1&
0%
0$
0#
bx "
x!
$end
#30
1_"
0|
0+"
08"
0E"
0R"
0`"
1}
1,"
19"
1F"
1S"
1]"
0Z"
0b"
1y
0""
0!"
1("
0/"
0."
15"
0<"
0;"
1B"
0I"
0H"
1O"
0V"
0U"
0/
0U
0*
0Z
0+
0Y
0,
0X
0-
0W
0.
0V
#40
1n
1[
1Q
#80
0k
0h
0e
0M
#90
0p
1r
0N
1L
#120
0c
0K
bx0x "
bx0x 2
0S
#140
1s
1A
#170
bx00 "
bx00 2
0T
#180
1c"
1["
1^"
0Y"
b0xxxxx 1
09
b0 "
b0 2
0R
#290
0g
0j
0m
0b
0f
0]
0i
0l
0q
08
07
06
05
04
0#"
00"
0="
0J"
bx00000 0
0W"
#330
1J
1O
#340
1d
1E
1@
#350
1D
1C
1B
#370
1^
1!
13
b100000 0
1d"
#380
14"
03"
17"
1A"
0@"
1D"
1N"
0M"
1Q"
1'"
0&"
1*"
02"
0?"
0L"
0%"
0<
0;
0:
b0x 1
0=
#400
0a
0P
#410
0_
0I
#450
0x
1w
0{
1v
b1 1
1>
#460
1u
1t
1G
#500
0o
0?
0H
#550
1`
1F
#1000
1%
#2000
1\
0%
1'
1#
0)
0&
#2040
0]"
1b"
0y
1!"
0("
1/"
1."
05"
1<"
1;"
0B"
1I"
1H"
0O"
1V"
1U"
1/
1U
1*
1Z
1+
1Y
1,
1X
1-
1W
1.
1V
#2070
1b
1M
#2090
0L
#2110
0d
0E
#2130
1d
1c
1K
#3000
1|
0_"
0}
1`"
1%
#3380
0^
0!
03
b0 0
0d"
#3390
18
b1 0
1#"
#3420
1_
1a
1I
1P
#3450
0G
#3460
1""
1x
0w
1{
0v
b0 1
0>
#3490
1o
1H
#3530
0d
0c
0F
#3590
0/"
0'"
1&"
0*"
1%"
b10 1
1=
#4000
0%
#5000
0|
1+"
1}
0,"
1%
#5380
0u
0t
08
b0 0
0#"
#5390
1g
1e
17
b10 0
10"
#5450
0D
1?
#5460
1d
1c
1F
#5490
0<"
04"
13"
07"
12"
b110 1
1<
#5510
1/"
1'"
0&"
1*"
0%"
b100 1
0=
#6000
0%
1(
1$
0'
0#
#6030
0[
0Q
#6080
1p
1N
#6090
0g
0e
0M
#6120
0s
0A
#6140
b1 "
b1 2
1T
#6160
1D
#6170
0c"
0["
1Z"
0^"
1Y"
b100100 1
19
#6190
1<"
14"
03"
17"
02"
b100000 1
0<
#7000
0+"
1_"
1,"
0`"
1%
#7380
0b
07
b0 0
00"
#7390
1^
1!
13
b100000 0
1d"
#7420
0a
0P
#7430
0_
0I
1E
#7460
0c
0F
#7470
0""
0x
1w
0{
1v
b100001 1
1>
#7480
1u
1t
1G
#7520
0p
0o
0?
0H
#7570
1c
1F
#7580
1s
1A
#7610
b0 "
b0 2
0T
#7620
1c"
1["
0Z"
1^"
0Y"
b1 1
09
#8000
0%
#9000
1|
0_"
0}
1`"
1%
#9380
0^
0!
03
b0 0
0d"
#9390
18
b1 0
1#"
#9420
1_
1a
1I
1P
#9450
0G
#9460
1""
1x
0w
1{
0v
b0 1
0>
#9490
1p
1o
1H
#9530
0s
0c
0A
0F
#9580
0c"
0["
1Z"
0^"
1Y"
b100000 1
19
#10000
0\
0%
0(
0$
1)
1&
#10030
1_"
0|
0`"
1}
1]"
0Z"
0b"
1y
0""
0!"
1("
0/"
0."
15"
0<"
0;"
1B"
0I"
0H"
1O"
0V"
0U"
0/
0U
0*
0Z
0+
0Y
0,
0X
0-
0W
0.
0V
#10040
1[
1Q
#10090
0p
0N
1L
#10120
0a
0`
0K
#10140
1s
1A
#10180
1c"
1["
1^"
0Y"
b0 1
09
#10190
0x
1w
0{
1v
b1 1
1>
#10290
0u
0t
08
b0 0
0#"
#10360
1?
#10370
1^
1!
13
b100000 0
1d"
#10400
0P
#10410
0_
0I
#10460
1u
1t
1G
#10500
0o
0?
0H
#10550
1`
1F
#11000
1%
#12000
1\
0%
1(
1$
0)
0&
#12030
0[
0Q
#12040
0]"
1b"
0y
1!"
0("
1/"
1."
05"
1<"
1;"
0B"
1I"
1H"
0O"
1V"
1U"
1/
1U
1*
1Z
1+
1Y
1,
1X
1-
1W
1.
1V
#12080
1N
0L
#12120
1c
1K
#13000
1|
0_"
0}
1`"
1%
#13380
0^
0!
03
b0 0
0d"
#13390
18
b1 0
1#"
#13420
1_
1a
1I
1P
#13450
0G
#13460
1""
1x
0w
1{
0v
b0 1
0>
#13490
1p
1o
1H
#13530
0s
0c
0A
0F
#13580
0c"
0["
1Z"
0^"
1Y"
b100000 1
19
#14000
0%
#15000
0|
1_"
1}
0`"
1%
#15380
0u
0t
08
b0 0
0#"
#15390
1^
1!
13
b100000 0
1d"
#15420
0a
0P
#15430
0_
0I
#15450
1?
#15470
0""
0x
1w
0{
1v
b100001 1
1>
#15480
1u
1t
1G
#15520
0p
0o
0?
b1 "
b1 2
1T
0H
#15570
1c
1F
#15580
1s
1A
#15610
b0 "
b0 2
0T
#15620
1c"
1["
0Z"
1^"
0Y"
b1 1
09
#16000
0\
0%
0(
0$
1)
1&
#16030
1]"
0b"
1y
0!"
1("
0/"
0."
15"
0<"
0;"
1B"
0I"
0H"
1O"
0V"
0U"
0/
0U
0*
0Z
0+
0Y
0,
0X
0-
0W
0.
0V
#16040
1[
1Q
#16090
0N
1L
#16120
0c
0K
#17000
1%
#18000
1\
0%
1'
1#
0)
0&
#18040
0]"
1b"
0y
1!"
0("
1/"
1."
05"
1<"
1;"
0B"
1I"
1H"
0O"
1V"
1U"
1/
1U
1*
1Z
1+
1Y
1,
1X
1-
1W
1.
1V
#18070
1b
1M
#18090
0L
#18110
0d
0E
#18130
1d
1c
1K
#19000
1|
0_"
0}
1`"
1%
#19380
0^
0!
03
b0 0
0d"
#19390
18
b1 0
1#"
#19420
1_
1a
1I
1P
#19450
0G
#19460
1""
1x
0w
1{
0v
b0 1
0>
#19490
1o
1H
#19530
0d
0c
0F
#19590
0/"
0'"
1&"
0*"
1%"
b10 1
1=
#20000
0%
#21000
0|
1+"
1}
0,"
1%
#21380
0u
0t
08
b0 0
0#"
#21390
1g
1e
17
b10 0
10"
#21450
0D
1?
#21460
1d
1c
1F
#21490
0<"
04"
13"
07"
12"
b110 1
1<
#21510
1/"
1'"
0&"
1*"
0%"
b100 1
0=
#22000
0%
#23000
0+"
18"
1,"
09"
1%
#23380
0g
0e
07
b0 0
00"
#23390
1j
1]
1h
16
b100 0
1="
#23440
0_
0J
#23450
0C
#23460
0d
0c
1D
0F
#23490
1<"
0I"
14"
03"
17"
0A"
1@"
0D"
1u
02"
1?"
1t
0<
b1000 1
1;
1G
#23520
0/"
0'"
1&"
0*"
1%"
0o
b1010 1
1=
0H
#23530
0?
#23580
1d
1c
1F
#23630
1/"
1'"
0&"
1*"
0%"
b1000 1
0=
#24000
0%
#25000
08"
1E"
19"
0F"
1%
#25380
0j
0]
0h
06
b0 0
0="
#25390
1m
1]
1k
15
b1000 0
1J"
#25420
0u
0O
#25450
0B
#25460
1C
#25470
1?
#25490
1I"
0V"
1A"
0@"
1D"
0N"
1M"
0Q"
0?"
1L"
0;
b10000 1
1:
#26000
0%
1(
1$
0'
0#
#26030
0n
0[
0Q
#26080
1N
#26090
0m
0k
0b
0M
#26100
1q
b10 "
b10 2
1S
#26130
1E
#26140
0s
0r
0@
b11 "
b11 2
1T
#26160
1B
#26190
1V"
1N"
0M"
1Q"
0L"
b0 1
0:
#26200
0c"
0["
1Z"
0^"
1Y"
b100000 1
19
#27000
0E"
1_"
1F"
0`"
1%
#27380
0]
05
b0 0
0J"
#27390
1^
1!
13
b100000 0
1d"
#27420
0a
1n
1_
1u
0P
1J
1O
#27430
0_
0I
#27460
0?
#27470
0""
0x
1w
0{
1v
0q
b100001 1
1>
b1 "
b1 2
0S
#27510
1s
1r
1@
#27550
1c"
1["
0Z"
1^"
0Y"
b1 1
09
b0 "
b0 2
0T
#28000
0%
#29000
1|
0_"
0}
1`"
1%
#29380
0^
0!
03
b0 0
0d"
#29390
18
b1 0
1#"
#29420
1_
1a
1I
1P
#29450
0G
#29460
1""
1x
0w
1{
0v
b0 1
0>
#29490
1p
1o
1H
#29530
0s
0c
0A
0F
#29580
0c"
0["
1Z"
0^"
1Y"
b100000 1
19
